Final Project
…
## Parsed with column specification:
## cols(
##   .default = col_character(),
##   `Time Of Stop` = col_time(format = ""),
##   Latitude = col_double(),
##   Longitude = col_double(),
##   Year = col_integer()
## )

## See spec(...) for full column specifications.

tv

## # A tibble: 1,292,399 x 35
##    `Date Of Stop` `Time Of Stop` Agency SubAgency  Description    Location
##    <chr>          <time>         <chr>  <chr>      <chr>          <chr>   
##  1 09/24/2013     17:11          MCP    3rd distr DRIVING VEHIC 8804 FL
##  2 08/29/2017     10:19          MCP    2nd distr DRIVER FAILUR WISCONS
##  3 12/01/2014     12:52          MCP    6th distr FAILURE STOP  CHRISTO
##  4 08/29/2017     09:22          MCP    3rd distr FAILURE YIELD CHERRY 
##  5 08/28/2017     23:41          MCP    6th distr FAILURE OF DR 355 @ S
##  6 08/27/2013     00:55          MCP    2nd distr NEGLIGENT DRI CONNECT
##  7 10/08/2013     13:23          MCP    4th distr DRIVING VEHIC GEORGIA
##  8 04/24/2015     00:38          MCP    1st distr DRIVER FAIL T EB MONT
##  9 08/28/2017     23:41          MCP    6th distr FAILURE OF IN 355 @ S
## 10 08/28/2017     23:41          MCP    6th distr DRIVING VEHIC 355 @ S
## # ... with 1,292,389 more rows, and 29 more variables: Latitude <dbl>,
## #   Longitude <dbl>, Accident <chr>, Belts <chr>, `Personal Injury` <chr>,
## #   `Property Damage` <chr>, Fatal <chr>, `Commercial License` <chr>,
## #   HAZMAT <chr>, `Commercial Vehicle` <chr>, Alcohol <chr>, `Work
## #   Zone` <chr>, State <chr>, VehicleType <chr>, Year <int>, Make <chr>,
## #   Model <chr>, Color <chr>, `Violation Type` <chr>, Charge <chr>,
## #   Article <chr>, `Contributed To Accident` <chr>, Race <chr>,
## #   Gender <chr>, `Driver City` <chr>, `Driver State` <chr>, `DL
## #   State` <chr>, `Arrest Type` <chr>, Geolocation <chr>
…
HAZMAT

Race

Gender

Geolocation (this information is already in a nicer format in the Latitude and Longitude columns)

We can remove these columns like so:

# The '-' sign in front of each column indicates that we want select() to remove that column
tv <- tv %>% select(-Agency, -SubAgency, -Location, -HAZMAT, -Race, -Gender, -Geolocation)
tv

## # A tibble: 90,579 x 31
##    DateOfStop TimeOfStop Description     Latitude Longitude Accident Belts
##    <date>     <time>     <chr>              <dbl>     <dbl> <chr>    <lgl>
##  1 2013-03-20 08:53      EXCEEDING MAXI     39.0     -77.0 No       F    
##  2 2013-05-27 14:13      EXCEEDING MAXI     39.1     -77.2 No       F    
##  3 2017-08-28 23:13      EXCEEDING POST     39.2     -77.2 No       F    
##  4 2012-07-26 09:24      EXCEEDING MAXI     39.1     -77.1 No       T    
##  5 2013-07-13 10:40      EXCEEDING MAXI     NA        NA   No       F    
##  6 2017-08-28 22:53      EXCEEDING POST     39.2     -77.2 No       F    
##  7 2013-07-31 13:42      EXCEEDING MAXI     39.1     -77.2 No       F    
##  8 2013-10-01 17:40      EXCEEDING MAXI     39.2     -77.2 No       F    
##  9 2015-02-26 20:25      EXCEEDING MAXI     39.2     -77.3 No       F    
## 10 2013-09-01 08:51      EXCEEDING MAXI     NA        NA   No       F    
## # ... with 90,569 more rows, and 24 more variables: PersonalInjury <lgl>,
## #   PropertyDamage <lgl>, Fatal <lgl>, CommercialLicense <lgl>,
## #   CommercialVehicle <lgl>, Alcohol <lgl>, WorkZone <lgl>, State <chr>,
## #   VehicleType <chr>, Year <int>, Make <chr>, Model <chr>, Color <chr>,
## #   ViolationType <fct>, Charge <chr>, Article <chr>,
## #   ContributedToAccident <lgl>, DriverCity <chr>, DriverState <chr>,
## #   DLState <chr>, ArrestType <chr>, PostedSpeedLimit <dbl>,
## #   TravelingSpeed <dbl>, Diff <dbl>
…
trainTbl <- tv %>%
  mutate(Month = month(DateOfStop), # Extract month/day/hour
         Day = day(DateOfStop),
         Hour = hour(TimeOfStop)) %>%
  select(Month, # Remove all columns not being used for analysis
         Day, 
         Hour, 
         Diff,
         ViolationType) %>%
  na.omit() # Remove any entries with NA values

trainTbl

## # A tibble: 90,579 x 5
##    Month   Day  Hour  Diff ViolationType
##    <dbl> <int> <int> <dbl> <fct>        
##  1  3.00    20     8  9.00 Citation     
##  2  5.00    27    14 25.0  Citation     
##  3  8.00    28    23  9.00 Citation     
##  4  7.00    26     9  9.00 Citation     
##  5  7.00    13    10 37.0  Citation     
##  6  8.00    28    22 10.0  Citation     
##  7  7.00    31    13  9.00 Citation     
##  8 10.0      1    17  9.00 Citation     
##  9  2.00    26    20 19.0  Citation     
## 10  9.00     1     8  9.00 Citation     
## # ... with 90,569 more rows
…
